<?xml version="1.0" encoding="UTF-8" standalone="no"?>
<!DOCTYPE output SYSTEM "DOCUMENTTYPEDECLARATIONFILEPATH">
<output>
	<sequence seqUuid="SEQUUID" seqType="SEQTYPE">
		<settings>
			<cfgDebug> </cfgDebug>
			<cfgRunPowerPosteriorMcmcSequence> </cfgRunPowerPosteriorMcmcSequence>
			<cfgSkipPriorComputations> </cfgSkipPriorComputations>
			<cfgGeneratePredictionsUsingPrior> </cfgGeneratePredictionsUsingPrior>
			<cfgSkipPosteriorComputations> </cfgSkipPosteriorComputations>
			<cfgGeneratePredictionsUsingPosterior> </cfgGeneratePredictionsUsingPosterior>
		</settings>
		<simulations numSims="1"> <!--Array-->
			<simulation simUuid="SIMUUID" type="SIMTYPE" subtype="SIMSUBTYPE"  osInterfaceType="OSINTERFACETYPE" samplerType="SAMPLERTYPE" name="NAME" description="DESCRIPTION" author="AUTHOR" reference="REFERENCE">
				<settings>
					<predictionsNSamples> </predictionsNSamples>
					<predictionsIntervalNmax> </predictionsIntervalNmax><!--only for NHPP models-->
					<predictionsToCapture> </predictionsToCapture>
					<predictionsHingeThreshold> </predictionsHingeThreshold>
					<powerPosteriorN> </powerPosteriorN>
					<powerPosteriorK> </powerPosteriorK>	
				</settings>
				<variables numVars="NUMVARS"> <!--Array-->
					<!--VARID x CHAINID x TEMPID-->
					<variable name="VARNAME" description="VARDESCRIPTION" type="VARTYPE" dimensions="VARDIMENSIONS" id="VARID">
						<mean></mean>
						<median></median>
						<sd></sd>
						<min></min>
						<max></max>
						<hpd></hpd>
						<mce></mce>
						<initial></initial>
						<samples></samples>
					</variable>
				</variables>
				<data>
					<priorData></priorData>
					<priorPredictedData></priorPredictedData>
					<posteriorData></posteriorData>
					<posteriorPredicted></posteriorPredicted>
				</data>
				<misc>
					<priorMsfe></priorMsfe>
					<posteriorMsfe></posteriorMsfe>
					<posteriorMarginalLogLikelihoodAlt></posteriorMarginalLogLikelihoodAlt>
					<klDistance></klDistance>
					<powerPosteriorMce></powerPosteriorMce>
				</misc>
			</simulation>
		</simulations>
		<misc> <!--Array-->
			<simulation name="SIMNAME" subtype="SIMSUBTYPE" simUuid="SIMUUID" samplerType="SAMPLERTYPE">
				<BF> </BF>
				<normPosteriorMarginalLogLikelihoodAlt> </normPosteriorMarginalLogLikelihoodAlt>
			</simulation>
			<data>
				<posteriorPredicted> 
					<!--bma predictions-->
				</posteriorPredicted>
			</data>
		</misc>
	</sequence>
</output>